<svg xmlns="http://www.w3.org/2000/svg" xmlns:xlink="http://www.w3.org/1999/xlink" width="148" height="148" viewBox="0 0 148 148">
  <defs>
    <filter id="Path_11915" x="0" y="0" width="148" height="148" filterUnits="userSpaceOnUse">
      <feOffset dy="10" input="SourceAlpha"/>
      <feGaussianBlur stdDeviation="5" result="blur"/>
      <feFlood flood-opacity="0.161"/>
      <feComposite operator="in" in2="blur"/>
      <feComposite in="SourceGraphic"/>
    </filter>
  </defs>
  <g id="Group_1543" data-name="Group 1543" transform="translate(-3566 -1959)">
    <g transform="matrix(1, 0, 0, 1, 3566, 1959)" filter="url(#Path_11915)">
      <g id="Path_11915-2" data-name="Path 11915" transform="translate(15 5)" fill="#1e7ebe">
        <path d="M 59 116.5 C 51.23688507080078 116.5 43.70678329467773 114.9799194335938 36.61886596679688 111.9819869995117 C 33.21208190917969 110.5410308837891 29.92611694335938 108.7574462890625 26.85224914550781 106.6808013916016 C 23.80719947814941 104.6235961914063 20.94373321533203 102.2610015869141 18.34136581420898 99.65863037109375 C 15.73900032043457 97.05626678466797 13.37639999389648 94.19280242919922 11.31919956207275 91.14775085449219 C 9.242549896240234 88.07388305664063 7.458966732025146 84.78791809082031 6.018016815185547 81.38113403320313 C 3.020083427429199 74.293212890625 1.5 66.76311492919922 1.5 59 C 1.5 51.23688507080078 3.020083427429199 43.70678329467773 6.018016815185547 36.61886596679688 C 7.458966732025146 33.21208190917969 9.242549896240234 29.92611694335938 11.31919956207275 26.85224914550781 C 13.37639999389648 23.80719947814941 15.73900032043457 20.94373321533203 18.34136581420898 18.34136581420898 C 20.94373321533203 15.73900032043457 23.80719947814941 13.37639999389648 26.85224914550781 11.31919956207275 C 29.92611694335938 9.242549896240234 33.21208190917969 7.458966732025146 36.61886596679688 6.018016815185547 C 43.70678329467773 3.020083427429199 51.23688507080078 1.5 59 1.5 C 66.76311492919922 1.5 74.293212890625 3.020083427429199 81.38113403320313 6.018016815185547 C 84.78791809082031 7.458966732025146 88.07388305664063 9.242549896240234 91.14775085449219 11.31919956207275 C 94.19280242919922 13.37639999389648 97.05626678466797 15.73900032043457 99.65863037109375 18.34136581420898 C 102.2610015869141 20.94373321533203 104.6235961914063 23.80719947814941 106.6808013916016 26.85224914550781 C 108.7574462890625 29.92611694335938 110.5410308837891 33.21208190917969 111.9819869995117 36.61886596679688 C 114.9799194335938 43.70678329467773 116.5 51.23688507080078 116.5 59 C 116.5 66.76311492919922 114.9799194335938 74.293212890625 111.9819869995117 81.38113403320313 C 110.5410308837891 84.78791809082031 108.7574462890625 88.07388305664063 106.6808013916016 91.14775085449219 C 104.6235961914063 94.19280242919922 102.2610015869141 97.05626678466797 99.65863037109375 99.65863037109375 C 97.05626678466797 102.2610015869141 94.19280242919922 104.6235961914063 91.14775085449219 106.6808013916016 C 88.07388305664063 108.7574462890625 84.78791809082031 110.5410308837891 81.38113403320313 111.9819869995117 C 74.293212890625 114.9799194335938 66.76311492919922 116.5 59 116.5 Z" stroke="none"/>
        <path d="M 59 3 C 51.43872833251953 3 44.10521697998047 4.480216979980469 37.20320129394531 7.399528503417969 C 33.88559722900391 8.802742004394531 30.68556213378906 10.53971099853516 27.69196319580078 12.56214904785156 C 24.72602081298828 14.56588745117188 21.93687438964844 16.86716461181641 19.40201568603516 19.40201568603516 C 16.86716461181641 21.93687438964844 14.56588745117188 24.72602081298828 12.56214904785156 27.69196319580078 C 10.53971099853516 30.68556213378906 8.802742004394531 33.88559722900391 7.399528503417969 37.20320129394531 C 4.480216979980469 44.10521697998047 3 51.43872833251953 3 59 C 3 66.56127166748047 4.480216979980469 73.89478302001953 7.399528503417969 80.79679870605469 C 8.802742004394531 84.11439514160156 10.53971099853516 87.31443786621094 12.56214904785156 90.30803680419922 C 14.56588745117188 93.27397918701172 16.86716461181641 96.06312561035156 19.40201568603516 98.59798431396484 C 21.93687438964844 101.1328353881836 24.72602081298828 103.4341125488281 27.69196319580078 105.4378509521484 C 30.68556213378906 107.4602890014648 33.88559722900391 109.1972503662109 37.20320129394531 110.600471496582 C 44.10521697998047 113.5197830200195 51.43872833251953 115 59 115 C 66.56127166748047 115 73.89478302001953 113.5197830200195 80.79679870605469 110.600471496582 C 84.11439514160156 109.1972503662109 87.31443786621094 107.4602890014648 90.30803680419922 105.4378509521484 C 93.27397918701172 103.4341125488281 96.06312561035156 101.1328353881836 98.59798431396484 98.59798431396484 C 101.1328353881836 96.06312561035156 103.4341125488281 93.27397918701172 105.4378509521484 90.30803680419922 C 107.4602890014648 87.31443786621094 109.1972503662109 84.11439514160156 110.600471496582 80.79679870605469 C 113.5197830200195 73.89478302001953 115 66.56127166748047 115 59 C 115 51.43872833251953 113.5197830200195 44.10521697998047 110.600471496582 37.20320129394531 C 109.1972503662109 33.88559722900391 107.4602890014648 30.68556213378906 105.4378509521484 27.69196319580078 C 103.4341125488281 24.72602081298828 101.1328353881836 21.93687438964844 98.59798431396484 19.40201568603516 C 96.06312561035156 16.86716461181641 93.27397918701172 14.56588745117188 90.30803680419922 12.56214904785156 C 87.31443786621094 10.53971099853516 84.11439514160156 8.802742004394531 80.79679870605469 7.399528503417969 C 73.89478302001953 4.480216979980469 66.56127166748047 3 59 3 M 59 0 C 91.58480072021484 0 118 26.41519927978516 118 59 C 118 91.58480072021484 91.58480072021484 118 59 118 C 26.41519927978516 118 0 91.58480072021484 0 59 C 0 26.41519927978516 26.41519927978516 0 59 0 Z" stroke="none" fill="#fff"/>
      </g>
    </g>
    <g id="Group_1492" data-name="Group 1492" transform="translate(3104.9 241.927)">
      <path id="Path_11264" data-name="Path 11264" d="M579.395,1750.5H565.078a14.483,14.483,0,0,0-14.478,14.478h0v5.651a14.483,14.483,0,0,0,14.478,14.478h13.294l4.521,4.521v-4.952a14.454,14.454,0,0,0,10.98-14.048v-5.651a14.448,14.448,0,0,0-14.478-14.478Z" transform="translate(-23.32)" fill="none" stroke="#fff" stroke-linecap="round" stroke-linejoin="round" stroke-width="3"/>
      <path id="Path_11265" data-name="Path 11265" d="M520.714,1792H508.173a8.063,8.063,0,0,0-8.073,8.073v18.407a8.063,8.063,0,0,0,8.073,8.073h.915v5.382l5.382-5.382h20.722a8.063,8.063,0,0,0,8.073-8.073V1810.3" transform="translate(0 -19.164)" fill="none" stroke="#fff" stroke-linecap="round" stroke-linejoin="round" stroke-width="3"/>
      <path id="Path_14" data-name="Path 14" d="M539.242,1810.083h1.884v-3.122a20.89,20.89,0,0,0-2.691-.161c-2.691,0-4.521,1.615-4.521,4.629v2.583H530.9v3.5h3.014v9.042h3.66v-9.042h3.014l.431-3.5h-3.5v-2.26C537.52,1810.783,537.789,1810.083,539.242,1810.083Z" transform="translate(-14.223 -25.998)" fill="#fff"/>
      <g id="_Group_" data-name="&lt;Group&gt;" transform="translate(540.251 1761.318)">
        <path id="Path_15" data-name="Path 15" d="M606.3,1770.9Z" transform="translate(-589.292 -1770.739)" fill="#fff"/>
        <path id="Path_16" data-name="Path 16" d="M590.954,1772.591a2.834,2.834,0,0,1-.7.108v-.054a6.351,6.351,0,0,0,1.4-1.561.421.421,0,0,0,0-.269l-1.13.484-.969.431h0a3.806,3.806,0,0,0-2.8-1.13,3.4,3.4,0,0,0-3.606,3.176,4.2,4.2,0,0,0,.161,1.184h0a11.338,11.338,0,0,1-4.413-1.292c-2.906-1.453-3.068-2.476-3.068-2.476a3.971,3.971,0,0,0-.215,3.337,4.3,4.3,0,0,0,1.292,1.507h0a3.23,3.23,0,0,1-.915-.161,1.769,1.769,0,0,1-.646-.323c-.269.7.269,1.938,1.292,2.8a5.157,5.157,0,0,0,1.615.861l-1.615.054c-.108,1.615,3.337,2.53,3.337,2.53h0a5.7,5.7,0,0,1-3.391,1.238,7.237,7.237,0,0,1-1.884-.269,8.785,8.785,0,0,0,6.082,2.153c6.136-.323,9.58-5.6,9.742-10.765h0a7,7,0,0,0,.915-.754,5.89,5.89,0,0,0,.969-1.345S591.331,1772.484,590.954,1772.591Z" transform="translate(-574.7 -1770.6)" fill="#fff"/>
        <path id="Path_17" data-name="Path 17" d="M606.2,1770.9Z" transform="translate(-589.246 -1770.739)" fill="#fff"/>
      </g>
    </g>
  </g>
</svg>
